County,Municipality,MinArea,MaxArea,AverageArea,NumberOfTransactions,MinPrice,MaxPrice,MinPricePerSquareMeter,MaxPricePerSquareMeter,MedianPricePerSquareMeter,AveragePricePerSquareMeter,StandardDeviationPricePerSquareMeter,TimePeriod
Harju maakond,Anija vald,30,40.99,NaN,1,NaN,NaN,NaN,NaN,NaN,NaN,NaN,5/1/2020 - 5/31/2020
Harju maakond,Anija vald,41,54.99,NaN,1,NaN,NaN,NaN,NaN,NaN,NaN,NaN,5/1/2020 - 5/31/2020
Harju maakond,Anija vald,70,249.99,NaN,1,NaN,NaN,NaN,NaN,NaN,NaN,NaN,5/1/2020 - 5/31/2020
Harju maakond,Anija vald,10,249.99,NaN,3,NaN,NaN,NaN,NaN,NaN,NaN,NaN,5/1/2020 - 5/31/2020
Harju maakond,Haabersti linnaosa,30,40.99,34.20,6,38432,74000,1175.29,2263,1724.06,1774.07,401.74,5/1/2020 - 5/31/2020
Harju maakond,Haabersti linnaosa,41,54.99,51.60,12,55000,132000,1089.11,2462.69,1431.56,1720.05,530.79,5/1/2020 - 5/31/2020
Harju maakond,Haabersti linnaosa,55,69.99,65.80,11,87000,153000,1324.20,2350.81,1751.86,1771.80,386.61,5/1/2020 - 5/31/2020
Harju maakond,Haabersti linnaosa,70,249.99,83.70,13,89000,270000,1133.76,2720.11,1936.56,1957.72,337.52,5/1/2020 - 5/31/2020
Harju maakond,Haabersti linnaosa,10,249.99,62.80,42,38432,270000,1089.11,2720.11,1902.62,1814.88,418.22,5/1/2020 - 5/31/2020
Harju maakond,Harku vald,10,29.99,NaN,1,NaN,NaN,NaN,NaN,NaN,NaN,NaN,5/1/2020 - 5/31/2020
Harju maakond,Harku vald,41,54.99,NaN,4,NaN,NaN,NaN,NaN,NaN,NaN,NaN,5/1/2020 - 5/31/2020
Harju maakond,Harku vald,55,69.99,NaN,1,NaN,NaN,NaN,NaN,NaN,NaN,NaN,5/1/2020 - 5/31/2020
Harju maakond,Harku vald,70,249.99,119.90,10,45000,246285,244.83,1996.05,1682.67,1539.39,526.84,5/1/2020 - 5/31/2020
Harju maakond,Harku vald,10,249.99,92.30,16,17500,246285,244.83,1996.05,1682.67,1510.60,527.99,5/1/2020 - 5/31/2020
Harju maakond,Jõelähtme vald,41,54.99,NaN,2,NaN,NaN,NaN,NaN,NaN,NaN,NaN,5/1/2020 - 5/31/2020
Harju maakond,Jõelähtme vald,55,69.99,NaN,3,NaN,NaN,NaN,NaN,NaN,NaN,NaN,5/1/2020 - 5/31/2020
Harju maakond,Jõelähtme vald,10,249.99,58.70,5,56000,99000,1172.93,1889.31,1281.46,1395.57,286.22,5/1/2020 - 5/31/2020
Harju maakond,Keila linn,30,40.99,NaN,1,NaN,NaN,NaN,NaN,NaN,NaN,NaN,5/1/2020 - 5/31/2020
Harju maakond,Keila linn,41,54.99,NaN,1,NaN,NaN,NaN,NaN,NaN,NaN,NaN,5/1/2020 - 5/31/2020
Harju maakond,Keila linn,55,69.99,NaN,2,NaN,NaN,NaN,NaN,NaN,NaN,NaN,5/1/2020 - 5/31/2020
Harju maakond,Keila linn,70,249.99,NaN,2,NaN,NaN,NaN,NaN,NaN,NaN,NaN,5/1/2020 - 5/31/2020
Harju maakond,Keila linn,10,249.99,60.70,6,40000,138900,787.40,1958.46,1286.67,1360.76,438.43,5/1/2020 - 5/31/2020
Harju maakond,Kesklinna linnaosa,10,29.99,24.50,8,4500,120360,215.31,4052.53,2239.13,2139,1065.81,5/1/2020 - 5/31/2020
Harju maakond,Kesklinna linnaosa,30,40.99,36.30,28,36042,155000,1112.41,4234.97,3073.09,2949.26,627.54,5/1/2020 - 5/31/2020
Harju maakond,Kesklinna linnaosa,41,54.99,50.30,26,24873,273132,488.66,4975.08,3025.88,2890.19,1020.97,5/1/2020 - 5/31/2020
Harju maakond,Kesklinna linnaosa,55,69.99,63,34,70000,259924,1118.21,3962.26,2518.17,2628.21,668.12,5/1/2020 - 5/31/2020
Harju maakond,Kesklinna linnaosa,70,249.99,102.10,43,44250,737000,313.61,4450.08,2605.21,2633.77,887.66,5/1/2020 - 5/31/2020
Harju maakond,Kesklinna linnaosa,10,249.99,65.20,139,4500,737000,215.31,4975.08,2797.43,2715.45,842.69,5/1/2020 - 5/31/2020
Harju maakond,Kiili vald,55,69.99,NaN,1,NaN,NaN,NaN,NaN,NaN,NaN,NaN,5/1/2020 - 5/31/2020
Harju maakond,Kiili vald,70,249.99,NaN,1,NaN,NaN,NaN,NaN,NaN,NaN,NaN,5/1/2020 - 5/31/2020
Harju maakond,Kiili vald,10,249.99,NaN,2,NaN,NaN,NaN,NaN,NaN,NaN,NaN,5/1/2020 - 5/31/2020
Harju maakond,Kose vald,41,54.99,NaN,1,NaN,NaN,NaN,NaN,NaN,NaN,NaN,5/1/2020 - 5/31/2020
Harju maakond,Kose vald,55,69.99,NaN,2,NaN,NaN,NaN,NaN,NaN,NaN,NaN,5/1/2020 - 5/31/2020
Harju maakond,Kose vald,70,249.99,NaN,1,NaN,NaN,NaN,NaN,NaN,NaN,NaN,5/1/2020 - 5/31/2020
Harju maakond,Kose vald,10,249.99,NaN,4,NaN,NaN,NaN,NaN,NaN,NaN,NaN,5/1/2020 - 5/31/2020
Harju maakond,Kristiine linnaosa,10,29.99,26.60,6,7500,105500,319.15,3663.19,1843.44,1874.70,1099.55,5/1/2020 - 5/31/2020
Harju maakond,Kristiine linnaosa,30,40.99,36.30,6,50000,124500,1483.68,3384.62,2142.86,2385.52,715.74,5/1/2020 - 5/31/2020
Harju maakond,Kristiine linnaosa,41,54.99,45.80,6,60000,140000,1301.52,2922.76,2119.40,2202.40,624.03,5/1/2020 - 5/31/2020
Harju maakond,Kristiine linnaosa,55,69.99,NaN,4,NaN,NaN,NaN,NaN,NaN,NaN,NaN,5/1/2020 - 5/31/2020
Harju maakond,Kristiine linnaosa,70,249.99,NaN,4,NaN,NaN,NaN,NaN,NaN,NaN,NaN,5/1/2020 - 5/31/2020
Harju maakond,Kristiine linnaosa,10,249.99,47.70,26,7500,250000,319.15,3663.19,2058.63,2039.36,831.99,5/1/2020 - 5/31/2020
Harju maakond,Kuusalu vald,30,40.99,NaN,1,NaN,NaN,NaN,NaN,NaN,NaN,NaN,5/1/2020 - 5/31/2020
Harju maakond,Kuusalu vald,55,69.99,NaN,1,NaN,NaN,NaN,NaN,NaN,NaN,NaN,5/1/2020 - 5/31/2020
Harju maakond,Kuusalu vald,70,249.99,NaN,1,NaN,NaN,NaN,NaN,NaN,NaN,NaN,5/1/2020 - 5/31/2020
Harju maakond,Kuusalu vald,10,249.99,NaN,3,NaN,NaN,NaN,NaN,NaN,NaN,NaN,5/1/2020 - 5/31/2020
Harju maakond,Lasnamäe linnaosa,10,29.99,24.20,6,15000,82000,905.21,2847.22,1421.91,1584.04,721.83,5/1/2020 - 5/31/2020
Harju maakond,Lasnamäe linnaosa,30,40.99,34.50,32,25000,105000,764.53,2932.96,1790.51,1765.65,539.01,5/1/2020 - 5/31/2020
Harju maakond,Lasnamäe linnaosa,41,54.99,47.80,31,45000,131000,985.92,2467.04,1704.36,1761.61,472.58,5/1/2020 - 5/31/2020
Harju maakond,Lasnamäe linnaosa,55,69.99,61.60,25,41246,160000,636.51,2702.70,1428.57,1751.83,603.45,5/1/2020 - 5/31/2020
Harju maakond,Lasnamäe linnaosa,70,249.99,80.90,13,70000,207000,876.10,2297.45,2002.74,1896.68,368.09,5/1/2020 - 5/31/2020
Harju maakond,Lasnamäe linnaosa,10,249.99,49.70,107,15000,207000,636.51,2932.96,1744.42,1766.99,523.98,5/1/2020 - 5/31/2020
Harju maakond,Loksa linn,10,29.99,NaN,1,NaN,NaN,NaN,NaN,NaN,NaN,NaN,5/1/2020 - 5/31/2020
Harju maakond,Lääne-Harju vald,10,29.99,NaN,2,NaN,NaN,NaN,NaN,NaN,NaN,NaN,5/1/2020 - 5/31/2020
Harju maakond,Lääne-Harju vald,30,40.99,NaN,4,NaN,NaN,NaN,NaN,NaN,NaN,NaN,5/1/2020 - 5/31/2020
Harju maakond,Lääne-Harju vald,41,54.99,48.80,6,18000,30000,384.62,632.91,491.85,497.06,119.47,5/1/2020 - 5/31/2020
Harju maakond,Lääne-Harju vald,55,69.99,NaN,3,NaN,NaN,NaN,NaN,NaN,NaN,NaN,5/1/2020 - 5/31/2020
Harju maakond,Lääne-Harju vald,10,249.99,43.70,15,1000,35000,37.45,797.34,511.18,467.31,196.91,5/1/2020 - 5/31/2020
Harju maakond,Maardu linn,41,54.99,NaN,1,NaN,NaN,NaN,NaN,NaN,NaN,NaN,5/1/2020 - 5/31/2020
Harju maakond,Mustamäe linnaosa,10,29.99,28.10,6,20000,89700,883,3061.43,2497.20,2229.21,920.92,5/1/2020 - 5/31/2020
Harju maakond,Mustamäe linnaosa,30,40.99,33.90,9,36619,89900,1102.98,2844.94,2478.63,2102.36,691.84,5/1/2020 - 5/31/2020
Harju maakond,Mustamäe linnaosa,41,54.99,46,37,35000,131000,743.10,2847.83,1934.73,2006.68,540.12,5/1/2020 - 5/31/2020
Harju maakond,Mustamäe linnaosa,55,69.99,63,34,33851,154200,557.68,2537.07,1935.65,1841.31,451.99,5/1/2020 - 5/31/2020
Harju maakond,Mustamäe linnaosa,70,249.99,87.50,13,110900,234000,1350.34,2523,2161.59,1979.38,373,5/1/2020 - 5/31/2020
Harju maakond,Mustamäe linnaosa,10,249.99,55.10,99,20000,234000,557.68,3061.43,2028.32,1968.49,536.02,5/1/2020 - 5/31/2020
Harju maakond,Nõmme linnaosa,10,29.99,NaN,2,NaN,NaN,NaN,NaN,NaN,NaN,NaN,5/1/2020 - 5/31/2020
Harju maakond,Nõmme linnaosa,30,40.99,NaN,1,NaN,NaN,NaN,NaN,NaN,NaN,NaN,5/1/2020 - 5/31/2020
Harju maakond,Nõmme linnaosa,41,54.99,48.60,5,45019,106500,879.28,2067.96,1740,1645.49,491.44,5/1/2020 - 5/31/2020
Harju maakond,Nõmme linnaosa,55,69.99,61.80,5,30000,115000,435.41,1811.02,1757.47,1480.91,588.96,5/1/2020 - 5/31/2020
Harju maakond,Nõmme linnaosa,70,249.99,101.10,7,40000,328000,510.20,2900.09,1930.29,1726.95,776.41,5/1/2020 - 5/31/2020
Harju maakond,Nõmme linnaosa,10,249.99,66.60,20,30000,328000,435.41,2900.09,1748.74,1645.21,579.80,5/1/2020 - 5/31/2020
Harju maakond,Pirita linnaosa,30,40.99,NaN,1,NaN,NaN,NaN,NaN,NaN,NaN,NaN,5/1/2020 - 5/31/2020
Harju maakond,Pirita linnaosa,41,54.99,NaN,2,NaN,NaN,NaN,NaN,NaN,NaN,NaN,5/1/2020 - 5/31/2020
Harju maakond,Pirita linnaosa,55,69.99,NaN,3,NaN,NaN,NaN,NaN,NaN,NaN,NaN,5/1/2020 - 5/31/2020
Harju maakond,Pirita linnaosa,70,249.99,128.60,15,92239,360000,693.53,2262.73,1168.63,1375.14,682.60,5/1/2020 - 5/31/2020
Harju maakond,Pirita linnaosa,10,249.99,108.20,21,85000,360000,693.53,2609.98,1759.47,1574.40,675.91,5/1/2020 - 5/31/2020
Harju maakond,Põhja-Tallinna linnaosa,10,29.99,21.60,16,2000,134000,89.29,4981.41,2083.42,2148.25,1145.65,5/1/2020 - 5/31/2020
Harju maakond,Põhja-Tallinna linnaosa,30,40.99,37.20,14,30000,176400,755.67,4488.55,1933.27,2163.46,1061.69,5/1/2020 - 5/31/2020
Harju maakond,Põhja-Tallinna linnaosa,41,54.99,47.50,21,53000,237900,1142.24,4349.18,2177.59,2249.39,957.11,5/1/2020 - 5/31/2020
Harju maakond,Põhja-Tallinna linnaosa,55,69.99,60.80,13,72500,252329,1318.18,3918.15,2190.20,2340.45,703.10,5/1/2020 - 5/31/2020
Harju maakond,Põhja-Tallinna linnaosa,70,249.99,91.50,9,106000,550000,1432.43,4306.97,2280.22,2437.35,985.38,5/1/2020 - 5/31/2020
Harju maakond,Põhja-Tallinna linnaosa,10,249.99,47.70,73,2000,550000,89.29,4981.41,2128.38,2250.13,965.05,5/1/2020 - 5/31/2020
Harju maakond,Raasiku vald,30,40.99,NaN,1,NaN,NaN,NaN,NaN,NaN,NaN,NaN,5/1/2020 - 5/31/2020
Harju maakond,Raasiku vald,41,54.99,NaN,1,NaN,NaN,NaN,NaN,NaN,NaN,NaN,5/1/2020 - 5/31/2020
Harju maakond,Raasiku vald,55,69.99,NaN,2,NaN,NaN,NaN,NaN,NaN,NaN,NaN,5/1/2020 - 5/31/2020
Harju maakond,Raasiku vald,70,249.99,90.70,9,59000,143189,753.51,1569.79,1251.65,1262.15,329.46,5/1/2020 - 5/31/2020
Harju maakond,Raasiku vald,10,249.99,78.40,13,20000,143189,403.23,1569.79,1251.65,1232.41,383.77,5/1/2020 - 5/31/2020
Harju maakond,Rae vald,30,40.99,NaN,7,NaN,NaN,NaN,NaN,NaN,NaN,NaN,5/1/2020 - 5/31/2020
Harju maakond,Rae vald,41,54.99,48.70,17,35000,141000,813.95,2901.23,2325.10,2244.12,430.11,5/1/2020 - 5/31/2020
Harju maakond,Rae vald,55,69.99,NaN,2,NaN,NaN,NaN,NaN,NaN,NaN,NaN,5/1/2020 - 5/31/2020
Harju maakond,Rae vald,70,249.99,92.90,24,24000,360000,240,2290.18,1949.62,1865.95,463.94,5/1/2020 - 5/31/2020
Harju maakond,Rae vald,10,249.99,68.90,50,24000,360000,240,2901.23,2132.04,1996.68,535.46,5/1/2020 - 5/31/2020
Harju maakond,Saku vald,10,29.99,NaN,1,NaN,NaN,NaN,NaN,NaN,NaN,NaN,5/1/2020 - 5/31/2020
Harju maakond,Saku vald,30,40.99,NaN,1,NaN,NaN,NaN,NaN,NaN,NaN,NaN,5/1/2020 - 5/31/2020
Harju maakond,Saku vald,41,54.99,NaN,4,NaN,NaN,NaN,NaN,NaN,NaN,NaN,5/1/2020 - 5/31/2020
Harju maakond,Saku vald,55,69.99,NaN,1,NaN,NaN,NaN,NaN,NaN,NaN,NaN,5/1/2020 - 5/31/2020
Harju maakond,Saku vald,70,249.99,NaN,1,NaN,NaN,NaN,NaN,NaN,NaN,NaN,5/1/2020 - 5/31/2020
Harju maakond,Saku vald,10,249.99,56.50,8,36000,210000,756.30,2038.93,1601.23,1509.88,377.55,5/1/2020 - 5/31/2020
Harju maakond,Saue vald,10,29.99,NaN,1,NaN,NaN,NaN,NaN,NaN,NaN,NaN,5/1/2020 - 5/31/2020
Harju maakond,Saue vald,30,40.99,NaN,2,NaN,NaN,NaN,NaN,NaN,NaN,NaN,5/1/2020 - 5/31/2020
Harju maakond,Saue vald,41,54.99,44.10,6,30000,107000,728.16,2377.78,1340.80,1362.56,566.63,5/1/2020 - 5/31/2020
Harju maakond,Saue vald,55,69.99,66.50,5,91000,138966,1311.24,2025.74,1761.74,1722.32,291.15,5/1/2020 - 5/31/2020
Harju maakond,Saue vald,70,249.99,107.40,13,142000,243798,1300.76,1988.80,1637.33,1669.48,196.16,5/1/2020 - 5/31/2020
Harju maakond,Saue vald,10,249.99,77.70,27,30000,243798,728.16,2377.78,1600.35,1590.53,347.84,5/1/2020 - 5/31/2020
Harju maakond,Tallinn,10,29.99,24,44,2000,134000,89.29,4981.41,2068.04,2025.28,997.58,5/1/2020 - 5/31/2020
Harju maakond,Tallinn,30,40.99,35.40,97,25000,176400,755.67,4488.55,2116.40,2237.85,821.44,5/1/2020 - 5/31/2020
Harju maakond,Tallinn,41,54.99,48.10,140,24873,273132,488.66,4975.08,2119.88,2129.27,809.76,5/1/2020 - 5/31/2020
Harju maakond,Tallinn,55,69.99,62.60,129,22500,259924,406.14,3962.26,2020.96,2055.98,689.06,5/1/2020 - 5/31/2020
Harju maakond,Tallinn,70,249.99,98.20,117,40000,737000,313.61,4450.08,2109.67,2148.43,837.77,5/1/2020 - 5/31/2020
Harju maakond,Tallinn,10,249.99,58.40,527,2000,737000,89.29,4981.41,2094.86,2126.89,807.82,5/1/2020 - 5/31/2020
Harju maakond,Viimsi vald,10,29.99,NaN,1,NaN,NaN,NaN,NaN,NaN,NaN,NaN,5/1/2020 - 5/31/2020
Harju maakond,Viimsi vald,41,54.99,NaN,2,NaN,NaN,NaN,NaN,NaN,NaN,NaN,5/1/2020 - 5/31/2020
Harju maakond,Viimsi vald,55,69.99,NaN,2,NaN,NaN,NaN,NaN,NaN,NaN,NaN,5/1/2020 - 5/31/2020
Harju maakond,Viimsi vald,70,249.99,106.80,9,91000,219000,1120.69,1934.52,1749.20,1665.42,274.26,5/1/2020 - 5/31/2020
Harju maakond,Viimsi vald,10,249.99,86.80,14,30000,219000,566.04,2109,1645.32,1601.34,389.86,5/1/2020 - 5/31/2020
Hiiu maakond,Hiiumaa vald,10,29.99,NaN,1,NaN,NaN,NaN,NaN,NaN,NaN,NaN,5/1/2020 - 5/31/2020
Hiiu maakond,Hiiumaa vald,41,54.99,NaN,1,NaN,NaN,NaN,NaN,NaN,NaN,NaN,5/1/2020 - 5/31/2020
Hiiu maakond,Hiiumaa vald,10,249.99,NaN,2,NaN,NaN,NaN,NaN,NaN,NaN,NaN,5/1/2020 - 5/31/2020
Ida-Viru maakond,Ahtme linnaosa,30,40.99,33.10,12,500,6000,15.72,188.68,77.92,95.63,58.29,5/1/2020 - 5/31/2020
Ida-Viru maakond,Ahtme linnaosa,41,54.99,NaN,6,NaN,NaN,NaN,NaN,NaN,NaN,NaN,5/1/2020 - 5/31/2020
Ida-Viru maakond,Ahtme linnaosa,55,69.99,63.10,6,5000,18000,71.94,295.57,156.95,166.93,85.73,5/1/2020 - 5/31/2020
Ida-Viru maakond,Ahtme linnaosa,70,249.99,NaN,1,NaN,NaN,NaN,NaN,NaN,NaN,NaN,5/1/2020 - 5/31/2020
Ida-Viru maakond,Ahtme linnaosa,10,249.99,45.60,25,500,18000,15.72,324.95,104.17,131.23,82.86,5/1/2020 - 5/31/2020
Ida-Viru maakond,Alutaguse vald,30,40.99,NaN,1,NaN,NaN,NaN,NaN,NaN,NaN,NaN,5/1/2020 - 5/31/2020
Ida-Viru maakond,Alutaguse vald,41,54.99,NaN,2,NaN,NaN,NaN,NaN,NaN,NaN,NaN,5/1/2020 - 5/31/2020
Ida-Viru maakond,Alutaguse vald,10,249.99,NaN,3,NaN,NaN,NaN,NaN,NaN,NaN,NaN,5/1/2020 - 5/31/2020
Ida-Viru maakond,Jõhvi vald,10,29.99,NaN,2,NaN,NaN,NaN,NaN,NaN,NaN,NaN,5/1/2020 - 5/31/2020
Ida-Viru maakond,Jõhvi vald,30,40.99,NaN,4,NaN,NaN,NaN,NaN,NaN,NaN,NaN,5/1/2020 - 5/31/2020
Ida-Viru maakond,Jõhvi vald,41,54.99,47.70,5,3000,28000,62.11,627.80,400.81,328.22,225.54,5/1/2020 - 5/31/2020
Ida-Viru maakond,Jõhvi vald,55,69.99,NaN,3,NaN,NaN,NaN,NaN,NaN,NaN,NaN,5/1/2020 - 5/31/2020
Ida-Viru maakond,Jõhvi vald,70,249.99,NaN,3,NaN,NaN,NaN,NaN,NaN,NaN,NaN,5/1/2020 - 5/31/2020
Ida-Viru maakond,Jõhvi vald,10,249.99,49.30,17,500,44000,8.77,794.22,382.44,328.98,218.96,5/1/2020 - 5/31/2020
Ida-Viru maakond,Järve linnaosa,10,29.99,NaN,2,NaN,NaN,NaN,NaN,NaN,NaN,NaN,5/1/2020 - 5/31/2020
Ida-Viru maakond,Järve linnaosa,30,40.99,38.60,9,300,7000,7.58,171.15,19.69,53.28,58.13,5/1/2020 - 5/31/2020
Ida-Viru maakond,Järve linnaosa,41,54.99,48.50,5,100,15000,2.12,302.42,59.88,105.92,122.62,5/1/2020 - 5/31/2020
Ida-Viru maakond,Järve linnaosa,55,69.99,NaN,3,NaN,NaN,NaN,NaN,NaN,NaN,NaN,5/1/2020 - 5/31/2020
Ida-Viru maakond,Järve linnaosa,70,249.99,NaN,1,NaN,NaN,NaN,NaN,NaN,NaN,NaN,5/1/2020 - 5/31/2020
Ida-Viru maakond,Järve linnaosa,10,249.99,45.70,20,100,15000,2.12,302.42,55.58,75.98,76.08,5/1/2020 - 5/31/2020
Ida-Viru maakond,Kohtla-Järve linn,10,29.99,NaN,2,NaN,NaN,NaN,NaN,NaN,NaN,NaN,5/1/2020 - 5/31/2020
Ida-Viru maakond,Kohtla-Järve linn,30,40.99,35.40,21,300,7000,7.58,188.68,68.54,77.48,60.68,5/1/2020 - 5/31/2020
Ida-Viru maakond,Kohtla-Järve linn,41,54.99,48.40,12,100,15500,2.12,324.95,104.17,131.76,114.71,5/1/2020 - 5/31/2020
Ida-Viru maakond,Kohtla-Järve linn,55,69.99,63.10,10,3200,18000,50.63,295.57,92.16,130.65,79.88,5/1/2020 - 5/31/2020
Ida-Viru maakond,Kohtla-Järve linn,70,249.99,NaN,2,NaN,NaN,NaN,NaN,NaN,NaN,NaN,5/1/2020 - 5/31/2020
Ida-Viru maakond,Kohtla-Järve linn,10,249.99,46,47,100,18000,2.12,324.95,82.24,104.02,83.28,5/1/2020 - 5/31/2020
Ida-Viru maakond,Lüganuse vald,30,40.99,NaN,2,NaN,NaN,NaN,NaN,NaN,NaN,NaN,5/1/2020 - 5/31/2020
Ida-Viru maakond,Lüganuse vald,55,69.99,NaN,1,NaN,NaN,NaN,NaN,NaN,NaN,NaN,5/1/2020 - 5/31/2020
Ida-Viru maakond,Lüganuse vald,10,249.99,NaN,3,NaN,NaN,NaN,NaN,NaN,NaN,NaN,5/1/2020 - 5/31/2020
Ida-Viru maakond,Narva linn,10,29.99,NaN,7,NaN,NaN,NaN,NaN,NaN,NaN,NaN,5/1/2020 - 5/31/2020
Ida-Viru maakond,Narva linn,30,40.99,37.10,10,10000,21000,263.16,551.18,341.59,356.65,90.79,5/1/2020 - 5/31/2020
Ida-Viru maakond,Narva linn,41,54.99,48.10,8,10500,36000,218.75,705.88,481.45,478.14,186.02,5/1/2020 - 5/31/2020
Ida-Viru maakond,Narva linn,55,69.99,62.20,9,16500,50000,283.02,780.03,430.46,501.43,201.34,5/1/2020 - 5/31/2020
Ida-Viru maakond,Narva linn,70,249.99,NaN,4,NaN,NaN,NaN,NaN,NaN,NaN,NaN,5/1/2020 - 5/31/2020
Ida-Viru maakond,Narva linn,10,249.99,47.60,38,5000,76000,167.22,993.46,366.98,444.54,179.98,5/1/2020 - 5/31/2020
Ida-Viru maakond,Narva-Jõesuu linn,55,69.99,NaN,1,NaN,NaN,NaN,NaN,NaN,NaN,NaN,5/1/2020 - 5/31/2020
Ida-Viru maakond,Narva-Jõesuu linn,70,249.99,NaN,1,NaN,NaN,NaN,NaN,NaN,NaN,NaN,5/1/2020 - 5/31/2020
Ida-Viru maakond,Narva-Jõesuu linn,10,249.99,NaN,2,NaN,NaN,NaN,NaN,NaN,NaN,NaN,5/1/2020 - 5/31/2020
Ida-Viru maakond,Oru linnaosa,55,69.99,NaN,1,NaN,NaN,NaN,NaN,NaN,NaN,NaN,5/1/2020 - 5/31/2020
Ida-Viru maakond,Sillamäe linn,10,29.99,NaN,2,NaN,NaN,NaN,NaN,NaN,NaN,NaN,5/1/2020 - 5/31/2020
Ida-Viru maakond,Sillamäe linn,30,40.99,37.90,6,1000,6000,27.70,160.43,120.02,109.73,50.79,5/1/2020 - 5/31/2020
Ida-Viru maakond,Sillamäe linn,41,54.99,NaN,3,NaN,NaN,NaN,NaN,NaN,NaN,NaN,5/1/2020 - 5/31/2020
Ida-Viru maakond,Sillamäe linn,55,69.99,NaN,4,NaN,NaN,NaN,NaN,NaN,NaN,NaN,5/1/2020 - 5/31/2020
Ida-Viru maakond,Sillamäe linn,70,249.99,NaN,2,NaN,NaN,NaN,NaN,NaN,NaN,NaN,5/1/2020 - 5/31/2020
Ida-Viru maakond,Sillamäe linn,10,249.99,48.80,17,1000,55000,27.70,590.13,122.55,213.09,183,5/1/2020 - 5/31/2020
Ida-Viru maakond,Sompa linnaosa,41,54.99,NaN,1,NaN,NaN,NaN,NaN,NaN,NaN,NaN,5/1/2020 - 5/31/2020
Ida-Viru maakond,Toila vald,41,54.99,NaN,1,NaN,NaN,NaN,NaN,NaN,NaN,NaN,5/1/2020 - 5/31/2020
Jõgeva maakond,Jõgeva vald,10,29.99,NaN,2,NaN,NaN,NaN,NaN,NaN,NaN,NaN,5/1/2020 - 5/31/2020
Jõgeva maakond,Jõgeva vald,30,40.99,NaN,2,NaN,NaN,NaN,NaN,NaN,NaN,NaN,5/1/2020 - 5/31/2020
Jõgeva maakond,Jõgeva vald,41,54.99,NaN,3,NaN,NaN,NaN,NaN,NaN,NaN,NaN,5/1/2020 - 5/31/2020
Jõgeva maakond,Jõgeva vald,55,69.99,NaN,3,NaN,NaN,NaN,NaN,NaN,NaN,NaN,5/1/2020 - 5/31/2020
Jõgeva maakond,Jõgeva vald,70,249.99,NaN,4,NaN,NaN,NaN,NaN,NaN,NaN,NaN,5/1/2020 - 5/31/2020
Jõgeva maakond,Jõgeva vald,10,249.99,53.50,14,1000,25500,51.81,356.37,268,244.44,91.29,5/1/2020 - 5/31/2020
Jõgeva maakond,Mustvee vald,55,69.99,NaN,2,NaN,NaN,NaN,NaN,NaN,NaN,NaN,5/1/2020 - 5/31/2020
Jõgeva maakond,Põltsamaa vald,10,29.99,NaN,1,NaN,NaN,NaN,NaN,NaN,NaN,NaN,5/1/2020 - 5/31/2020
Jõgeva maakond,Põltsamaa vald,30,40.99,NaN,2,NaN,NaN,NaN,NaN,NaN,NaN,NaN,5/1/2020 - 5/31/2020
Jõgeva maakond,Põltsamaa vald,41,54.99,NaN,2,NaN,NaN,NaN,NaN,NaN,NaN,NaN,5/1/2020 - 5/31/2020
Jõgeva maakond,Põltsamaa vald,55,69.99,NaN,1,NaN,NaN,NaN,NaN,NaN,NaN,NaN,5/1/2020 - 5/31/2020
Jõgeva maakond,Põltsamaa vald,70,249.99,NaN,1,NaN,NaN,NaN,NaN,NaN,NaN,NaN,5/1/2020 - 5/31/2020
Jõgeva maakond,Põltsamaa vald,10,249.99,49.30,7,147,21000,5.38,253.93,13.23,64.51,NaN,5/1/2020 - 5/31/2020
Järva maakond,Järva vald,10,29.99,NaN,1,NaN,NaN,NaN,NaN,NaN,NaN,NaN,5/1/2020 - 5/31/2020
Järva maakond,Järva vald,30,40.99,NaN,1,NaN,NaN,NaN,NaN,NaN,NaN,NaN,5/1/2020 - 5/31/2020
Järva maakond,Järva vald,41,54.99,NaN,2,NaN,NaN,NaN,NaN,NaN,NaN,NaN,5/1/2020 - 5/31/2020
Järva maakond,Järva vald,70,249.99,NaN,3,NaN,NaN,NaN,NaN,NaN,NaN,NaN,5/1/2020 - 5/31/2020
Järva maakond,Järva vald,10,249.99,62.80,7,500,22000,19.46,276.04,132.08,110.73,96.27,5/1/2020 - 5/31/2020
Järva maakond,Paide linn,30,40.99,38.30,6,6000,38000,149.63,997.38,526.59,539.82,320.59,5/1/2020 - 5/31/2020
Järva maakond,Paide linn,41,54.99,45.50,8,5000,24999,106.16,606.77,346.16,362.86,161.39,5/1/2020 - 5/31/2020
Järva maakond,Paide linn,55,69.99,NaN,1,NaN,NaN,NaN,NaN,NaN,NaN,NaN,5/1/2020 - 5/31/2020
Järva maakond,Paide linn,70,249.99,NaN,1,NaN,NaN,NaN,NaN,NaN,NaN,NaN,5/1/2020 - 5/31/2020
Järva maakond,Paide linn,10,249.99,45.70,16,4000,38000,53.55,997.38,353.34,415.16,250.75,5/1/2020 - 5/31/2020
Järva maakond,Türi vald,10,29.99,NaN,1,NaN,NaN,NaN,NaN,NaN,NaN,NaN,5/1/2020 - 5/31/2020
Järva maakond,Türi vald,30,40.99,NaN,2,NaN,NaN,NaN,NaN,NaN,NaN,NaN,5/1/2020 - 5/31/2020
Järva maakond,Türi vald,70,249.99,NaN,1,NaN,NaN,NaN,NaN,NaN,NaN,NaN,5/1/2020 - 5/31/2020
Järva maakond,Türi vald,10,249.99,NaN,4,NaN,NaN,NaN,NaN,NaN,NaN,NaN,5/1/2020 - 5/31/2020
Lääne maakond,Haapsalu linn,30,40.99,NaN,2,NaN,NaN,NaN,NaN,NaN,NaN,NaN,5/1/2020 - 5/31/2020
Lääne maakond,Haapsalu linn,41,54.99,NaN,3,NaN,NaN,NaN,NaN,NaN,NaN,NaN,5/1/2020 - 5/31/2020
Lääne maakond,Haapsalu linn,55,69.99,NaN,1,NaN,NaN,NaN,NaN,NaN,NaN,NaN,5/1/2020 - 5/31/2020
Lääne maakond,Haapsalu linn,70,249.99,NaN,1,NaN,NaN,NaN,NaN,NaN,NaN,NaN,5/1/2020 - 5/31/2020
Lääne maakond,Haapsalu linn,10,249.99,52.80,7,10000,41000,152.48,836.73,578.95,545.12,263.74,5/1/2020 - 5/31/2020
Lääne maakond,Lääne-Nigula vald,41,54.99,NaN,3,NaN,NaN,NaN,NaN,NaN,NaN,NaN,5/1/2020 - 5/31/2020
Lääne maakond,Lääne-Nigula vald,55,69.99,NaN,2,NaN,NaN,NaN,NaN,NaN,NaN,NaN,5/1/2020 - 5/31/2020
Lääne maakond,Lääne-Nigula vald,10,249.99,56.60,5,2500,16000,47.53,292.40,240.96,197.05,102.75,5/1/2020 - 5/31/2020
Lääne-Viru maakond,Haljala vald,10,29.99,NaN,1,NaN,NaN,NaN,NaN,NaN,NaN,NaN,5/1/2020 - 5/31/2020
Lääne-Viru maakond,Haljala vald,55,69.99,NaN,1,NaN,NaN,NaN,NaN,NaN,NaN,NaN,5/1/2020 - 5/31/2020
Lääne-Viru maakond,Haljala vald,10,249.99,NaN,2,NaN,NaN,NaN,NaN,NaN,NaN,NaN,5/1/2020 - 5/31/2020
Lääne-Viru maakond,Kadrina vald,41,54.99,NaN,2,NaN,NaN,NaN,NaN,NaN,NaN,NaN,5/1/2020 - 5/31/2020
Lääne-Viru maakond,Kadrina vald,70,249.99,NaN,2,NaN,NaN,NaN,NaN,NaN,NaN,NaN,5/1/2020 - 5/31/2020
Lääne-Viru maakond,Kadrina vald,10,249.99,NaN,4,NaN,NaN,NaN,NaN,NaN,NaN,NaN,5/1/2020 - 5/31/2020
Lääne-Viru maakond,Rakvere linn,10,29.99,NaN,1,NaN,NaN,NaN,NaN,NaN,NaN,NaN,5/1/2020 - 5/31/2020
Lääne-Viru maakond,Rakvere linn,30,40.99,NaN,4,NaN,NaN,NaN,NaN,NaN,NaN,NaN,5/1/2020 - 5/31/2020
Lääne-Viru maakond,Rakvere linn,41,54.99,NaN,3,NaN,NaN,NaN,NaN,NaN,NaN,NaN,5/1/2020 - 5/31/2020
Lääne-Viru maakond,Rakvere linn,55,69.99,NaN,3,NaN,NaN,NaN,NaN,NaN,NaN,NaN,5/1/2020 - 5/31/2020
Lääne-Viru maakond,Rakvere linn,10,249.99,44.30,11,2000,61000,60.24,985.46,587.04,544.77,293.86,5/1/2020 - 5/31/2020
Lääne-Viru maakond,Rakvere vald,30,40.99,NaN,2,NaN,NaN,NaN,NaN,NaN,NaN,NaN,5/1/2020 - 5/31/2020
Lääne-Viru maakond,Rakvere vald,55,69.99,NaN,2,NaN,NaN,NaN,NaN,NaN,NaN,NaN,5/1/2020 - 5/31/2020
Lääne-Viru maakond,Rakvere vald,10,249.99,NaN,4,NaN,NaN,NaN,NaN,NaN,NaN,NaN,5/1/2020 - 5/31/2020
Lääne-Viru maakond,Tapa vald,10,29.99,NaN,1,NaN,NaN,NaN,NaN,NaN,NaN,NaN,5/1/2020 - 5/31/2020
Lääne-Viru maakond,Tapa vald,30,40.99,36.80,6,700,30000,17.81,748.13,124.75,205.91,273.89,5/1/2020 - 5/31/2020
Lääne-Viru maakond,Tapa vald,41,54.99,NaN,3,NaN,NaN,NaN,NaN,NaN,NaN,NaN,5/1/2020 - 5/31/2020
Lääne-Viru maakond,Tapa vald,55,69.99,63,7,100,39000,1.73,578.64,144.46,176.62,196.82,5/1/2020 - 5/31/2020
Lääne-Viru maakond,Tapa vald,10,249.99,49.20,17,100,39000,1.73,748.13,100,162.15,202.24,5/1/2020 - 5/31/2020
Lääne-Viru maakond,Vinni vald,10,29.99,NaN,1,NaN,NaN,NaN,NaN,NaN,NaN,NaN,5/1/2020 - 5/31/2020
Lääne-Viru maakond,Vinni vald,30,40.99,NaN,1,NaN,NaN,NaN,NaN,NaN,NaN,NaN,5/1/2020 - 5/31/2020
Lääne-Viru maakond,Vinni vald,41,54.99,NaN,1,NaN,NaN,NaN,NaN,NaN,NaN,NaN,5/1/2020 - 5/31/2020
Lääne-Viru maakond,Vinni vald,55,69.99,NaN,2,NaN,NaN,NaN,NaN,NaN,NaN,NaN,5/1/2020 - 5/31/2020
Lääne-Viru maakond,Vinni vald,10,249.99,47.40,5,800,39900,37.38,677.42,95.87,261.52,276.98,5/1/2020 - 5/31/2020
Lääne-Viru maakond,Viru-Nigula vald,30,40.99,NaN,2,NaN,NaN,NaN,NaN,NaN,NaN,NaN,5/1/2020 - 5/31/2020
Lääne-Viru maakond,Viru-Nigula vald,41,54.99,48.70,5,300,4000,6,80.97,7.66,28.29,32.96,5/1/2020 - 5/31/2020
Lääne-Viru maakond,Viru-Nigula vald,55,69.99,NaN,1,NaN,NaN,NaN,NaN,NaN,NaN,NaN,5/1/2020 - 5/31/2020
Lääne-Viru maakond,Viru-Nigula vald,70,249.99,NaN,1,NaN,NaN,NaN,NaN,NaN,NaN,NaN,5/1/2020 - 5/31/2020
Lääne-Viru maakond,Viru-Nigula vald,10,249.99,49.40,9,300,13500,6,180.97,40.73,54.31,56.62,5/1/2020 - 5/31/2020
Lääne-Viru maakond,Väike-Maarja vald,41,54.99,NaN,1,NaN,NaN,NaN,NaN,NaN,NaN,NaN,5/1/2020 - 5/31/2020
Lääne-Viru maakond,Väike-Maarja vald,70,249.99,NaN,2,NaN,NaN,NaN,NaN,NaN,NaN,NaN,5/1/2020 - 5/31/2020
Lääne-Viru maakond,Väike-Maarja vald,10,249.99,NaN,3,NaN,NaN,NaN,NaN,NaN,NaN,NaN,5/1/2020 - 5/31/2020
Põlva maakond,Kanepi vald,10,29.99,NaN,1,NaN,NaN,NaN,NaN,NaN,NaN,NaN,5/1/2020 - 5/31/2020
Põlva maakond,Põlva vald,10,29.99,NaN,2,NaN,NaN,NaN,NaN,NaN,NaN,NaN,5/1/2020 - 5/31/2020
Põlva maakond,Põlva vald,30,40.99,NaN,4,NaN,NaN,NaN,NaN,NaN,NaN,NaN,5/1/2020 - 5/31/2020
Põlva maakond,Põlva vald,41,54.99,NaN,3,NaN,NaN,NaN,NaN,NaN,NaN,NaN,5/1/2020 - 5/31/2020
Põlva maakond,Põlva vald,55,69.99,NaN,2,NaN,NaN,NaN,NaN,NaN,NaN,NaN,5/1/2020 - 5/31/2020
Põlva maakond,Põlva vald,10,249.99,43.50,11,350,32500,7.20,873.66,197.13,350.33,296.57,5/1/2020 - 5/31/2020
Põlva maakond,Räpina vald,41,54.99,NaN,2,NaN,NaN,NaN,NaN,NaN,NaN,NaN,5/1/2020 - 5/31/2020
Põlva maakond,Räpina vald,55,69.99,NaN,2,NaN,NaN,NaN,NaN,NaN,NaN,NaN,5/1/2020 - 5/31/2020
Põlva maakond,Räpina vald,10,249.99,NaN,4,NaN,NaN,NaN,NaN,NaN,NaN,NaN,5/1/2020 - 5/31/2020
Pärnu maakond,Häädemeeste vald,41,54.99,NaN,2,NaN,NaN,NaN,NaN,NaN,NaN,NaN,5/1/2020 - 5/31/2020
Pärnu maakond,Häädemeeste vald,70,249.99,NaN,1,NaN,NaN,NaN,NaN,NaN,NaN,NaN,5/1/2020 - 5/31/2020
Pärnu maakond,Häädemeeste vald,10,249.99,NaN,3,NaN,NaN,NaN,NaN,NaN,NaN,NaN,5/1/2020 - 5/31/2020
Pärnu maakond,Lääneranna vald,41,54.99,NaN,3,NaN,NaN,NaN,NaN,NaN,NaN,NaN,5/1/2020 - 5/31/2020
Pärnu maakond,Lääneranna vald,55,69.99,NaN,2,NaN,NaN,NaN,NaN,NaN,NaN,NaN,5/1/2020 - 5/31/2020
Pärnu maakond,Lääneranna vald,10,249.99,52.80,5,345,6500,7.89,95.87,16.17,39.98,38.84,5/1/2020 - 5/31/2020
Pärnu maakond,Põhja-Pärnumaa vald,30,40.99,NaN,2,NaN,NaN,NaN,NaN,NaN,NaN,NaN,5/1/2020 - 5/31/2020
Pärnu maakond,Põhja-Pärnumaa vald,41,54.99,NaN,3,NaN,NaN,NaN,NaN,NaN,NaN,NaN,5/1/2020 - 5/31/2020
Pärnu maakond,Põhja-Pärnumaa vald,55,69.99,NaN,1,NaN,NaN,NaN,NaN,NaN,NaN,NaN,5/1/2020 - 5/31/2020
Pärnu maakond,Põhja-Pärnumaa vald,70,249.99,NaN,1,NaN,NaN,NaN,NaN,NaN,NaN,NaN,5/1/2020 - 5/31/2020
Pärnu maakond,Põhja-Pärnumaa vald,10,249.99,48.40,7,250,25000,6.01,348.36,110.06,158.25,136.86,5/1/2020 - 5/31/2020
Pärnu maakond,Pärnu linn,10,29.99,NaN,3,NaN,NaN,NaN,NaN,NaN,NaN,NaN,5/1/2020 - 5/31/2020
Pärnu maakond,Pärnu linn,30,40.99,36.20,14,16000,65000,506.33,2070.06,1039.14,1097.56,380.29,5/1/2020 - 5/31/2020
Pärnu maakond,Pärnu linn,41,54.99,47.40,13,24000,109500,508.47,2281.25,1272.19,1258.73,522.43,5/1/2020 - 5/31/2020
Pärnu maakond,Pärnu linn,55,69.99,62,17,24000,135000,388.35,2038.52,1400,1328.41,508.60,5/1/2020 - 5/31/2020
Pärnu maakond,Pärnu linn,70,249.99,NaN,8,NaN,NaN,NaN,NaN,NaN,NaN,NaN,5/1/2020 - 5/31/2020
Pärnu maakond,Pärnu linn,10,249.99,54.70,55,16000,251250,388.35,2515.02,1165.98,1252.21,491.27,5/1/2020 - 5/31/2020
Pärnu maakond,Saarde vald,55,69.99,NaN,1,NaN,NaN,NaN,NaN,NaN,NaN,NaN,5/1/2020 - 5/31/2020
Pärnu maakond,Tori vald,30,40.99,NaN,2,NaN,NaN,NaN,NaN,NaN,NaN,NaN,5/1/2020 - 5/31/2020
Pärnu maakond,Tori vald,41,54.99,NaN,2,NaN,NaN,NaN,NaN,NaN,NaN,NaN,5/1/2020 - 5/31/2020
Pärnu maakond,Tori vald,10,249.99,NaN,4,NaN,NaN,NaN,NaN,NaN,NaN,NaN,5/1/2020 - 5/31/2020
Rapla maakond,Kehtna vald,41,54.99,NaN,2,NaN,NaN,NaN,NaN,NaN,NaN,NaN,5/1/2020 - 5/31/2020
Rapla maakond,Kohila vald,30,40.99,NaN,1,NaN,NaN,NaN,NaN,NaN,NaN,NaN,5/1/2020 - 5/31/2020
Rapla maakond,Märjamaa vald,30,40.99,NaN,1,NaN,NaN,NaN,NaN,NaN,NaN,NaN,5/1/2020 - 5/31/2020
Rapla maakond,Märjamaa vald,55,69.99,NaN,2,NaN,NaN,NaN,NaN,NaN,NaN,NaN,5/1/2020 - 5/31/2020
Rapla maakond,Märjamaa vald,70,249.99,NaN,1,NaN,NaN,NaN,NaN,NaN,NaN,NaN,5/1/2020 - 5/31/2020
Rapla maakond,Märjamaa vald,10,249.99,NaN,4,NaN,NaN,NaN,NaN,NaN,NaN,NaN,5/1/2020 - 5/31/2020
Rapla maakond,Rapla vald,10,29.99,NaN,1,NaN,NaN,NaN,NaN,NaN,NaN,NaN,5/1/2020 - 5/31/2020
Rapla maakond,Rapla vald,30,40.99,NaN,1,NaN,NaN,NaN,NaN,NaN,NaN,NaN,5/1/2020 - 5/31/2020
Rapla maakond,Rapla vald,41,54.99,NaN,3,NaN,NaN,NaN,NaN,NaN,NaN,NaN,5/1/2020 - 5/31/2020
Rapla maakond,Rapla vald,55,69.99,NaN,3,NaN,NaN,NaN,NaN,NaN,NaN,NaN,5/1/2020 - 5/31/2020
Rapla maakond,Rapla vald,70,249.99,NaN,3,NaN,NaN,NaN,NaN,NaN,NaN,NaN,5/1/2020 - 5/31/2020
Rapla maakond,Rapla vald,10,249.99,54.90,11,5000,91000,125.94,1294.45,697.67,647.07,406.86,5/1/2020 - 5/31/2020
Saare maakond,Muhu vald,55,69.99,NaN,1,NaN,NaN,NaN,NaN,NaN,NaN,NaN,5/1/2020 - 5/31/2020
Saare maakond,Saaremaa vald,10,29.99,NaN,2,NaN,NaN,NaN,NaN,NaN,NaN,NaN,5/1/2020 - 5/31/2020
Saare maakond,Saaremaa vald,41,54.99,NaN,4,NaN,NaN,NaN,NaN,NaN,NaN,NaN,5/1/2020 - 5/31/2020
Saare maakond,Saaremaa vald,55,69.99,64.30,6,10000,89200,151.52,1307.92,1034.94,960.13,423.62,5/1/2020 - 5/31/2020
Saare maakond,Saaremaa vald,70,249.99,NaN,1,NaN,NaN,NaN,NaN,NaN,NaN,NaN,5/1/2020 - 5/31/2020
Saare maakond,Saaremaa vald,10,249.99,53.20,13,3000,89200,64.79,1345.76,1031.87,838.95,NaN,5/1/2020 - 5/31/2020
Tartu maakond,Elva vald,41,54.99,NaN,4,NaN,NaN,NaN,NaN,NaN,NaN,NaN,5/1/2020 - 5/31/2020
Tartu maakond,Elva vald,55,69.99,NaN,1,NaN,NaN,NaN,NaN,NaN,NaN,NaN,5/1/2020 - 5/31/2020
Tartu maakond,Elva vald,10,249.99,51.10,5,87,60000,1.72,918.84,597.56,451.19,425.78,5/1/2020 - 5/31/2020
Tartu maakond,Kambja vald,30,40.99,NaN,1,NaN,NaN,NaN,NaN,NaN,NaN,NaN,5/1/2020 - 5/31/2020
Tartu maakond,Kambja vald,41,54.99,NaN,2,NaN,NaN,NaN,NaN,NaN,NaN,NaN,5/1/2020 - 5/31/2020
Tartu maakond,Kambja vald,55,69.99,NaN,2,NaN,NaN,NaN,NaN,NaN,NaN,NaN,5/1/2020 - 5/31/2020
Tartu maakond,Kambja vald,70,249.99,NaN,4,NaN,NaN,NaN,NaN,NaN,NaN,NaN,5/1/2020 - 5/31/2020
Tartu maakond,Kambja vald,10,249.99,72.40,9,23000,158000,682.49,1558.19,1374.75,1218.31,308.87,5/1/2020 - 5/31/2020
Tartu maakond,Kastre vald,41,54.99,NaN,1,NaN,NaN,NaN,NaN,NaN,NaN,NaN,5/1/2020 - 5/31/2020
Tartu maakond,Kastre vald,70,249.99,NaN,1,NaN,NaN,NaN,NaN,NaN,NaN,NaN,5/1/2020 - 5/31/2020
Tartu maakond,Kastre vald,10,249.99,NaN,2,NaN,NaN,NaN,NaN,NaN,NaN,NaN,5/1/2020 - 5/31/2020
Tartu maakond,Luunja vald,30,40.99,NaN,1,NaN,NaN,NaN,NaN,NaN,NaN,NaN,5/1/2020 - 5/31/2020
Tartu maakond,Luunja vald,41,54.99,NaN,1,NaN,NaN,NaN,NaN,NaN,NaN,NaN,5/1/2020 - 5/31/2020
Tartu maakond,Luunja vald,55,69.99,NaN,2,NaN,NaN,NaN,NaN,NaN,NaN,NaN,5/1/2020 - 5/31/2020
Tartu maakond,Luunja vald,70,249.99,NaN,2,NaN,NaN,NaN,NaN,NaN,NaN,NaN,5/1/2020 - 5/31/2020
Tartu maakond,Luunja vald,10,249.99,59.90,6,20000,120000,393.70,1736.97,1382.28,1283.67,476.09,5/1/2020 - 5/31/2020
Tartu maakond,Nõo vald,30,40.99,NaN,1,NaN,NaN,NaN,NaN,NaN,NaN,NaN,5/1/2020 - 5/31/2020
Tartu maakond,Nõo vald,70,249.99,NaN,1,NaN,NaN,NaN,NaN,NaN,NaN,NaN,5/1/2020 - 5/31/2020
Tartu maakond,Nõo vald,10,249.99,NaN,2,NaN,NaN,NaN,NaN,NaN,NaN,NaN,5/1/2020 - 5/31/2020
Tartu maakond,Peipsiääre vald,30,40.99,NaN,1,NaN,NaN,NaN,NaN,NaN,NaN,NaN,5/1/2020 - 5/31/2020
Tartu maakond,Tartu linn,10,29.99,24.70,11,12562,79900,428.74,3026.52,1648.94,1713.14,741.71,5/1/2020 - 5/31/2020
Tartu maakond,Tartu linn,30,40.99,36,18,40000,90000,1061.73,2428.93,1984.46,1815.12,468.04,5/1/2020 - 5/31/2020
Tartu maakond,Tartu linn,41,54.99,49.20,25,10000,156035,192.68,2842.17,1781.12,1625.06,596.03,5/1/2020 - 5/31/2020
Tartu maakond,Tartu linn,55,69.99,63.90,17,10000,170000,151.75,3003.53,1552.89,1655.29,697.77,5/1/2020 - 5/31/2020
Tartu maakond,Tartu linn,70,249.99,83.10,20,10000,280000,112.87,2483.79,1699.04,1567.36,589.18,5/1/2020 - 5/31/2020
Tartu maakond,Tartu linn,10,249.99,53.80,91,10000,280000,112.87,3026.52,1725.89,1666.27,603.69,5/1/2020 - 5/31/2020
Tartu maakond,Tartu vald,30,40.99,NaN,2,NaN,NaN,NaN,NaN,NaN,NaN,NaN,5/1/2020 - 5/31/2020
Tartu maakond,Tartu vald,41,54.99,49.20,6,77900,93944,1584.16,1811.63,1767.53,1728.44,95.89,5/1/2020 - 5/31/2020
Tartu maakond,Tartu vald,55,69.99,NaN,4,NaN,NaN,NaN,NaN,NaN,NaN,NaN,5/1/2020 - 5/31/2020
Tartu maakond,Tartu vald,70,249.99,82.60,8,73000,148000,773.04,1685.71,1525.02,1389.44,336.37,5/1/2020 - 5/31/2020
Tartu maakond,Tartu vald,10,249.99,64.80,20,33500,148000,773.04,1861.04,1634.73,1535.90,NaN,5/1/2020 - 5/31/2020
Valga maakond,Otepää vald,41,54.99,NaN,1,NaN,NaN,NaN,NaN,NaN,NaN,NaN,5/1/2020 - 5/31/2020
Valga maakond,Otepää vald,55,69.99,NaN,2,NaN,NaN,NaN,NaN,NaN,NaN,NaN,5/1/2020 - 5/31/2020
Valga maakond,Otepää vald,10,249.99,NaN,3,NaN,NaN,NaN,NaN,NaN,NaN,NaN,5/1/2020 - 5/31/2020
Valga maakond,Tõrva vald,55,69.99,NaN,2,NaN,NaN,NaN,NaN,NaN,NaN,NaN,5/1/2020 - 5/31/2020
Valga maakond,Valga vald,10,29.99,NaN,2,NaN,NaN,NaN,NaN,NaN,NaN,NaN,5/1/2020 - 5/31/2020
Valga maakond,Valga vald,30,40.99,38.50,6,4000,13000,100,354.22,220.46,227.95,106.64,5/1/2020 - 5/31/2020
Valga maakond,Valga vald,41,54.99,NaN,4,NaN,NaN,NaN,NaN,NaN,NaN,NaN,5/1/2020 - 5/31/2020
Valga maakond,Valga vald,55,69.99,NaN,2,NaN,NaN,NaN,NaN,NaN,NaN,NaN,5/1/2020 - 5/31/2020
Valga maakond,Valga vald,10,249.99,42.60,14,300,27000,4.85,390.17,182.47,192.84,NaN,5/1/2020 - 5/31/2020
Viljandi maakond,Mulgi vald,10,29.99,NaN,2,NaN,NaN,NaN,NaN,NaN,NaN,NaN,5/1/2020 - 5/31/2020
Viljandi maakond,Mulgi vald,41,54.99,NaN,2,NaN,NaN,NaN,NaN,NaN,NaN,NaN,5/1/2020 - 5/31/2020
Viljandi maakond,Mulgi vald,55,69.99,NaN,1,NaN,NaN,NaN,NaN,NaN,NaN,NaN,5/1/2020 - 5/31/2020
Viljandi maakond,Mulgi vald,70,249.99,NaN,2,NaN,NaN,NaN,NaN,NaN,NaN,NaN,5/1/2020 - 5/31/2020
Viljandi maakond,Mulgi vald,10,249.99,52.10,7,1300,10400,54.85,136.13,63.83,80.51,29.84,5/1/2020 - 5/31/2020
Viljandi maakond,Põhja-Sakala vald,10,29.99,NaN,1,NaN,NaN,NaN,NaN,NaN,NaN,NaN,5/1/2020 - 5/31/2020
Viljandi maakond,Põhja-Sakala vald,41,54.99,NaN,2,NaN,NaN,NaN,NaN,NaN,NaN,NaN,5/1/2020 - 5/31/2020
Viljandi maakond,Põhja-Sakala vald,55,69.99,NaN,1,NaN,NaN,NaN,NaN,NaN,NaN,NaN,5/1/2020 - 5/31/2020
Viljandi maakond,Põhja-Sakala vald,10,249.99,NaN,4,NaN,NaN,NaN,NaN,NaN,NaN,NaN,5/1/2020 - 5/31/2020
Viljandi maakond,Viljandi linn,10,29.99,NaN,3,NaN,NaN,NaN,NaN,NaN,NaN,NaN,5/1/2020 - 5/31/2020
Viljandi maakond,Viljandi linn,30,40.99,36.20,5,6000,49000,189.27,1335.15,795.80,726.69,434.27,5/1/2020 - 5/31/2020
Viljandi maakond,Viljandi linn,41,54.99,NaN,1,NaN,NaN,NaN,NaN,NaN,NaN,NaN,5/1/2020 - 5/31/2020
Viljandi maakond,Viljandi linn,55,69.99,NaN,2,NaN,NaN,NaN,NaN,NaN,NaN,NaN,5/1/2020 - 5/31/2020
Viljandi maakond,Viljandi linn,70,249.99,NaN,2,NaN,NaN,NaN,NaN,NaN,NaN,NaN,5/1/2020 - 5/31/2020
Viljandi maakond,Viljandi linn,10,249.99,44.70,13,3500,120000,124.56,1388.89,810.06,771.80,398.54,5/1/2020 - 5/31/2020
Viljandi maakond,Viljandi vald,41,54.99,NaN,2,NaN,NaN,NaN,NaN,NaN,NaN,NaN,5/1/2020 - 5/31/2020
Viljandi maakond,Viljandi vald,55,69.99,NaN,2,NaN,NaN,NaN,NaN,NaN,NaN,NaN,5/1/2020 - 5/31/2020
Viljandi maakond,Viljandi vald,10,249.99,NaN,4,NaN,NaN,NaN,NaN,NaN,NaN,NaN,5/1/2020 - 5/31/2020
Võru maakond,Antsla vald,30,40.99,NaN,2,NaN,NaN,NaN,NaN,NaN,NaN,NaN,5/1/2020 - 5/31/2020
Võru maakond,Antsla vald,55,69.99,NaN,1,NaN,NaN,NaN,NaN,NaN,NaN,NaN,5/1/2020 - 5/31/2020
Võru maakond,Antsla vald,70,249.99,NaN,1,NaN,NaN,NaN,NaN,NaN,NaN,NaN,5/1/2020 - 5/31/2020
Võru maakond,Antsla vald,10,249.99,NaN,4,NaN,NaN,NaN,NaN,NaN,NaN,NaN,5/1/2020 - 5/31/2020
Võru maakond,Rõuge vald,41,54.99,NaN,3,NaN,NaN,NaN,NaN,NaN,NaN,NaN,5/1/2020 - 5/31/2020
Võru maakond,Setomaa vald,41,54.99,NaN,1,NaN,NaN,NaN,NaN,NaN,NaN,NaN,5/1/2020 - 5/31/2020
Võru maakond,Võru linn,10,29.99,NaN,1,NaN,NaN,NaN,NaN,NaN,NaN,NaN,5/1/2020 - 5/31/2020
Võru maakond,Võru linn,30,40.99,NaN,3,NaN,NaN,NaN,NaN,NaN,NaN,NaN,5/1/2020 - 5/31/2020
Võru maakond,Võru linn,41,54.99,NaN,2,NaN,NaN,NaN,NaN,NaN,NaN,NaN,5/1/2020 - 5/31/2020
Võru maakond,Võru linn,55,69.99,61.20,5,6500,81350,109.43,1172.19,742.50,692.48,395.14,5/1/2020 - 5/31/2020
Võru maakond,Võru linn,70,249.99,NaN,2,NaN,NaN,NaN,NaN,NaN,NaN,NaN,5/1/2020 - 5/31/2020
Võru maakond,Võru linn,10,249.99,52.50,13,800,81350,23.88,1172.19,742.50,623.51,358.08,5/1/2020 - 5/31/2020
Võru maakond,Võru vald,30,40.99,NaN,3,NaN,NaN,NaN,NaN,NaN,NaN,NaN,5/1/2020 - 5/31/2020
Võru maakond,Võru vald,41,54.99,NaN,1,NaN,NaN,NaN,NaN,NaN,NaN,NaN,5/1/2020 - 5/31/2020
Võru maakond,Võru vald,70,249.99,NaN,3,NaN,NaN,NaN,NaN,NaN,NaN,NaN,5/1/2020 - 5/31/2020
Võru maakond,Võru vald,10,249.99,59,7,7000,36500,131.58,725.65,345.30,410.92,220.10,5/1/2020 - 5/31/2020
